{
    "key": "group_606ebe8582af4",
    "title": "Footer",
    "fields": [
        {
            "key": "field_606ec17ea95b3",
            "label": "Addresses",
            "name": "addresses",
            "type": "group",
            "instructions": "",
            "required": 0,
            "conditional_logic": 0,
            "wrapper": {
                "width": "",
                "class": "",
                "id": ""
            },
            "admin_only": 0,
            "ign_set_data": "",
            "layout": "block",
            "sub_fields": [
                {
                    "key": "field_606ec391a95b4",
                    "label": "Title",
                    "name": "title",
                    "type": "text",
                    "instructions": "",
                    "required": 0,
                    "conditional_logic": 0,
                    "wrapper": {
                        "width": "",
                        "class": "",
                        "id": ""
                    },
                    "admin_only": 0,
                    "default_value": "",
                    "placeholder": "",
                    "prepend": "",
                    "append": "",
                    "maxlength": "",
                    "autocomplete": "",
                    "ign_set_data": ""
                },
                {
                    "key": "field_606ec3a0a95b5",
                    "label": "Address 1",
                    "name": "address_1",
                    "type": "textarea",
                    "instructions": "",
                    "required": 0,
                    "conditional_logic": 0,
                    "wrapper": {
                        "width": "",
                        "class": "",
                        "id": ""
                    },
                    "admin_only": 0,
                    "ign_set_data": "",
                    "default_value": "",
                    "placeholder": "",
                    "maxlength": "",
                    "rows": "",
                    "new_lines": "br"
                },
                {
                    "key": "field_606ec3bba95b6",
                    "label": "Address 2",
                    "name": "address_2",
                    "type": "textarea",
                    "instructions": "",
                    "required": 0,
                    "conditional_logic": 0,
                    "wrapper": {
                        "width": "",
                        "class": "",
                        "id": ""
                    },
                    "admin_only": 0,
                    "ign_set_data": "",
                    "default_value": "",
                    "placeholder": "",
                    "maxlength": "",
                    "rows": "",
                    "new_lines": "br"
                }
            ]
        },
        {
            "key": "field_606ec3fba95b7",
            "label": "E-mail Contant",
            "name": "email_contant",
            "type": "group",
            "instructions": "",
            "required": 0,
            "conditional_logic": 0,
            "wrapper": {
                "width": "",
                "class": "",
                "id": ""
            },
            "admin_only": 0,
            "layout": "block",
            "sub_fields": [
                {
                    "key": "field_606ec412a95b8",
                    "label": "Title",
                    "name": "title",
                    "type": "text",
                    "instructions": "",
                    "required": 0,
                    "conditional_logic": 0,
                    "wrapper": {
                        "width": "",
                        "class": "",
                        "id": ""
                    },
                    "admin_only": 0,
                    "default_value": "",
                    "placeholder": "",
                    "prepend": "",
                    "append": "",
                    "maxlength": "",
                    "autocomplete": "",
                    "ign_set_data": ""
                },
                {
                    "key": "field_606ec424a95b9",
                    "label": "e-mail addresses",
                    "name": "email_addresses",
                    "type": "repeater",
                    "instructions": "",
                    "required": 0,
                    "conditional_logic": 0,
                    "wrapper": {
                        "width": "",
                        "class": "",
                        "id": ""
                    },
                    "admin_only": 0,
                    "collapsed": "",
                    "min": 0,
                    "max": 0,
                    "layout": "table",
                    "button_label": "",
                    "sub_fields": [
                        {
                            "key": "field_606ec489a95ba",
                            "label": "e-mail",
                            "name": "email",
                            "type": "link",
                            "instructions": "",
                            "required": 0,
                            "conditional_logic": 0,
                            "wrapper": {
                                "width": "",
                                "class": "",
                                "id": ""
                            },
                            "admin_only": 0,
                            "return_format": "array"
                        }
                    ]
                }
            ]
        },
        {
            "key": "field_606ec4aaa95bb",
            "label": "WhatsApp Contant",
            "name": "whatsapp_contant",
            "type": "group",
            "instructions": "",
            "required": 0,
            "conditional_logic": 0,
            "wrapper": {
                "width": "",
                "class": "",
                "id": ""
            },
            "admin_only": 0,
            "ign_set_data": "",
            "layout": "block",
            "sub_fields": [
                {
                    "key": "field_60706ed20d3bf",
                    "label": "TItle",
                    "name": "title",
                    "type": "text",
                    "instructions": "",
                    "required": 0,
                    "conditional_logic": 0,
                    "wrapper": {
                        "width": "",
                        "class": "",
                        "id": ""
                    },
                    "admin_only": 0,
                    "default_value": "",
                    "placeholder": "",
                    "prepend": "",
                    "append": "",
                    "maxlength": "",
                    "autocomplete": "",
                    "ign_set_data": ""
                },
                {
                    "key": "field_606ec4caa95bc",
                    "label": "Phone Numbers",
                    "name": "phone_numbers",
                    "type": "repeater",
                    "instructions": "",
                    "required": 0,
                    "conditional_logic": 0,
                    "wrapper": {
                        "width": "",
                        "class": "",
                        "id": ""
                    },
                    "admin_only": 0,
                    "ign_set_data": "",
                    "collapsed": "",
                    "min": 0,
                    "max": 0,
                    "layout": "table",
                    "button_label": "",
                    "sub_fields": [
                        {
                            "key": "field_606ec4eba95bd",
                            "label": "phone number",
                            "name": "phone_number",
                            "type": "link",
                            "instructions": "",
                            "required": 0,
                            "conditional_logic": 0,
                            "wrapper": {
                                "width": "",
                                "class": "",
                                "id": ""
                            },
                            "admin_only": 0,
                            "ign_set_data": "",
                            "return_format": "array"
                        }
                    ]
                }
            ]
        },
        {
            "key": "field_606ec517a95be",
            "label": "Social Media",
            "name": "social_media",
            "type": "group",
            "instructions": "",
            "required": 0,
            "conditional_logic": 0,
            "wrapper": {
                "width": "",
                "class": "",
                "id": ""
            },
            "admin_only": 0,
            "ign_set_data": "",
            "layout": "block",
            "sub_fields": [
                {
                    "key": "field_606ec5fca95c2",
                    "label": "Title",
                    "name": "title",
                    "type": "text",
                    "instructions": "",
                    "required": 0,
                    "conditional_logic": 0,
                    "wrapper": {
                        "width": "",
                        "class": "",
                        "id": ""
                    },
                    "admin_only": 0,
                    "default_value": "",
                    "placeholder": "",
                    "prepend": "",
                    "append": "",
                    "maxlength": "",
                    "autocomplete": "",
                    "ign_set_data": ""
                },
                {
                    "key": "field_606ec526a95bf",
                    "label": "Social Icons",
                    "name": "social_icons",
                    "type": "repeater",
                    "instructions": "",
                    "required": 0,
                    "conditional_logic": 0,
                    "wrapper": {
                        "width": "",
                        "class": "",
                        "id": ""
                    },
                    "admin_only": 0,
                    "ign_set_data": "",
                    "collapsed": "",
                    "min": 0,
                    "max": 0,
                    "layout": "table",
                    "button_label": "",
                    "sub_fields": [
                        {
                            "key": "field_606ec55da95c0",
                            "label": "icon",
                            "name": "icon",
                            "type": "image",
                            "instructions": "",
                            "required": 0,
                            "conditional_logic": 0,
                            "wrapper": {
                                "width": "",
                                "class": "",
                                "id": ""
                            },
                            "admin_only": 0,
                            "ign_set_data": "",
                            "return_format": "id",
                            "preview_size": "medium",
                            "library": "all",
                            "min_width": "",
                            "min_height": "",
                            "min_size": "",
                            "max_width": "",
                            "max_height": "",
                            "max_size": "",
                            "mime_types": ""
                        },
                        {
                            "key": "field_606ec5c0a95c1",
                            "label": "link",
                            "name": "link",
                            "type": "url",
                            "instructions": "",
                            "required": 0,
                            "conditional_logic": 0,
                            "wrapper": {
                                "width": "",
                                "class": "",
                                "id": ""
                            },
                            "admin_only": 0,
                            "ign_set_data": "",
                            "default_value": "",
                            "placeholder": ""
                        }
                    ]
                }
            ]
        },
        {
            "key": "field_606ec61fa95c3",
            "label": "Copyright",
            "name": "copyright",
            "type": "text",
            "instructions": "",
            "required": 0,
            "conditional_logic": 0,
            "wrapper": {
                "width": "",
                "class": "",
                "id": ""
            },
            "admin_only": 0,
            "default_value": "",
            "placeholder": "",
            "prepend": "",
            "append": "",
            "maxlength": "",
            "autocomplete": "",
            "ign_set_data": ""
        },
        {
            "key": "field_606ec62fa95c4",
            "label": "Privacy Policy",
            "name": "privacy_policy",
            "type": "link",
            "instructions": "",
            "required": 0,
            "conditional_logic": 0,
            "wrapper": {
                "width": "",
                "class": "",
                "id": ""
            },
            "admin_only": 0,
            "ign_set_data": "",
            "return_format": "array"
        },
        {
            "key": "field_606ec661a95c5",
            "label": "Backgroud Image Desctop",
            "name": "backgroud_image_desctop",
            "type": "image",
            "instructions": "Image resolution 2600 x 500px.",
            "required": 0,
            "conditional_logic": 0,
            "wrapper": {
                "width": "",
                "class": "",
                "id": ""
            },
            "admin_only": 0,
            "return_format": "id",
            "preview_size": "medium",
            "library": "all",
            "min_width": "",
            "min_height": "",
            "min_size": "",
            "max_width": "",
            "max_height": "",
            "max_size": "",
            "mime_types": ""
        },
        {
            "key": "field_606ec682a95c6",
            "label": "Background Image Mobile",
            "name": "background_image_mobile",
            "type": "image",
            "instructions": "Image resolution 800 x 800px.",
            "required": 0,
            "conditional_logic": 0,
            "wrapper": {
                "width": "",
                "class": "",
                "id": ""
            },
            "admin_only": 0,
            "return_format": "id",
            "preview_size": "medium",
            "library": "all",
            "min_width": "",
            "min_height": "",
            "min_size": "",
            "max_width": "",
            "max_height": "",
            "max_size": "",
            "mime_types": ""
        }
    ],
    "location": [
        [
            {
                "param": "options_page",
                "operator": "==",
                "value": "theme-footer"
            }
        ]
    ],
    "menu_order": 0,
    "position": "normal",
    "style": "default",
    "label_placement": "top",
    "instruction_placement": "label",
    "hide_on_screen": "",
    "active": true,
    "description": "",
    "modified": 1617981156
}